{
  "url": "http://www.adidas.com/yeezy",
  "userAgent": "Mozilla/5.0 (Macintosh; Intel Mac OS X 10_10_5) AppleWebKit/537.36 (KHTML, like Gecko) Chrome/56.0.2924.87 Safari/537.36",
  "uniqueSelector": ".in-line",
  "intervalSeconds": "10"
}